Thomas Mock (2021). Tidy Tuesday: A weekly data project aimed at the R ecosystem. https://github.com/rfordatascience/tidytuesday.
…
Using helper function group_count can be used to see the most popular of any column

netflix_titles$date_added <- mdy(netflix_titles$date_added)
netflix_countries_raw <- netflix_titles %>% group_count("country")
netflix_countries_raw

## # A tibble: 682 x 2
##    country            n
##    <chr>          <int>
##  1 United States   2555
##  2 India            923
##  3 <NA>             507
##  4 United Kingdom   397
##  5 Japan            226
##  6 South Korea      183
##  7 Canada           177
##  8 Spain            134
##  9 France           115
## 10 Egypt            101
## # ... with 672 more rows
…
Some series has NA in the country, which is weird because everything has to be filmed SOMEWHERE right?

na_country <- netflix2 %>% filter(is.na(country))
na_country

## # A tibble: 507 x 12
##    show_id type  title director cast  country date_added release_year rating
##    <chr>   <chr> <chr> <chr>    <chr> <chr>   <date>            <dbl> <chr> 
##  1 s17     TV S~ Feb-~ <NA>     Shah~ <NA>    2019-03-20         2018 TV-14 
##  2 s39     TV S~ <U+0E41><U+0E1C><U+0E19><U+0E23>~ <NA>     Chut~ <NA>    2019-03-30         2016 TV-14 
##  3 s68     Movie 13TH~ <NA>     Opra~ <NA>    2017-01-26         2017 <NA>  
##  4 s98     Movie 3 De~ Nagesh ~ Nase~ <NA>    2019-12-31         2003 TV-MA 
##  5 s118    Movie 5 Co~ Anggy U~ Ario~ <NA>    2019-01-05         2017 TV-MA 
##  6 s142    TV S~ 7SEE~ <NA>     Nao ~ <NA>    2020-03-26         2020 TV-MA 
##  7 s179    Movie A Go~ Alex Wo~ Alan~ <NA>    2020-10-02         2020 TV-Y  
##  8 s180    Movie A Go~ Stanley~ Alan~ <NA>    2020-08-04         2020 TV-Y  
##  9 s205    Movie A Mi~ Ahmad E~ Edwa~ <NA>    2019-04-25         2012 TV-MA 
## 10 s243    Movie A Tr~ Eddie R~ Henr~ <NA>    2020-12-11         2020 TV-Y  
## # ... with 497 more rows, and 3 more variables: duration <chr>,
## #   listed_in <chr>, description <chr>

Using separate_rows and group_count for directors

separate_rows(netflix_titles, director, sep = ", ") %>%  
  group_count("director")

## # A tibble: 4,479 x 2
##    director                n
##    <chr>               <int>
##  1 <NA>                 2389
##  2 Jan Suter              21
##  3 Ral Campos            19
##  4 Marcus Raboy           16
##  5 Jay Karas              15
##  6 Cathy Garcia-Molina    13
##  7 Jay Chapman            12
##  8 Martin Scorsese        12
##  9 Youssef Chahine        12
## 10 Steven Spielberg       10
## # ... with 4,469 more rows
…
